{
  "type": "service_account",
  "project_id": "lms-twufqc",
  "private_key_id": "7e9ab181212896b3cfcc81e4154a7c58509676fa",
  "private_key": "-----BEGIN PRIVATE KEY-----\nMIIEvAIBADANBgkqhkiG9w0BAQEFAASCBKYwggSiAgEAAoIBAQC5k0nqEj2/nLgq\n/x3eo8TnerAjCN70+BvujVwqjD2C6/buqB/ae/kWkA6V+EXokbQZESOrXjJ0Ll8f\njqXRp8hJ+D1qiXmRHoIWG2K8KoLuqmNUkInJxUfVuD7Zg6Mf2poeYNf+8bH/aphw\nZQpld83VFICZwaaqOdga3Z66FDExOe2ssDYGuiQKhs5hlbwwbdWW4W7Nr2vwaTI4\nDEATLho2L777pPASlqO8e3s+nD6I0pTr+CPqDCke8C/BhbuITF9gnKXYYYAFidS9\nTHMvU/pDUAKPaw4ViHKtMraOBsXpo9RfngNohF0eWfsJWX4utimUiKqP0lOevM8Y\nSq9v57RtAgMBAAECggEAM5UBuBre6ApfVLA59L8vxangGLToCE6IsQvA4SC/HkuJ\nhTfdNsU77O4Y582tXOJXHZqagBE8U/fpv+NOKxMIhKsIIztYO6KvxQZSsPveDgn1\ndzV/30JDX+AJNDu3VWzVZvlDQJ2c/OJ7wc4MED03TPGYd2SQ94MBkyIj8xQWwlge\nTTfXybNZavmbOUk66QhIHMmuKdkqsIqiUMv4fXKFdJlQNyP+h89Te66ntW2Gm+Cp\ngHgDfkCi04HygrAW99/7GOfi2OUMznB9U75OWhlphbhKxmEhLAtb9y5WtRrYEbxg\n8lOsfI6gb4kP34N8bs158p5VmAgeFWq9rl3pIYLXHwKBgQDz46zgKPjWthMXvE9y\neBs+fAcnriZYqjYizLKojmgsBZRMCkPYDhTrdLSULzRRsTc3n3Ln3V5GQK5NUJ+4\nhkBn7uBoOyPELzGaNYV1vgPbhM8gjV3fkZahbgaflmoGs3blIwTKxzhI/ziUB37X\njp3LnJ9K9886BfK8rdgO9xmkawKBgQDCylMxTmWDEJMiNAcNiJTK9c+0F1vfZqTL\nc7i99I1W7wRmnm8zaPfOAankK8wRVSsaKjr9+QuMtL9WTsTWRSiSfqhPSDwdYz6t\nGlCq9W/4TotU2vbAiF0n0Fn7Y32sQLO8ugWGV0qd/sXlcyVZ9EEGxib+YfmAAk2d\nj97AjKYAhwKBgFAEfO22w52+cxkwgWhvG5EupDJSouYoQka8nklLH8aBthwUqhmy\n1Q5DZhPQQPwkhpdLSynjqVCnXAil0SF7epoe96V68csmKMINmVH+G8nkEwj9GLWH\nUMJ6FNY7RWIZc4LOMH5PSpo4klmO9ADJG+B37JNuJqFE3lUlPGP8kn8tAoGAE1WT\nxlwatVSq1gVGAfDhm/ekIyMCan08tDkLSEeC0/Mrg6gML5Umq5r8qvox6jKC8bjp\nXBYhMFkseLuezAnXShsqR5xK4zvbl8D56s4rzAC30bdeMKQYYwBKPiqU6ckOThhE\nvh3h+Sa1q92vAmu9HJgEfNFqu2r/GzmRiZksTPcCgYATn+ECky8rvANQJ5PTTBos\nSpPGn4LJ5XpFXzVwJ+tBI91w3ul917C3mo8o+/ZJx+g3IJjUpbvgtVd7YQbrj60H\nrVWOlaFOPVRGPnUwArChG0Utj6tPygrMHApXX7muPtUjJ1twEIDAtQsAUOBeW90m\n+gV7wcDEXGmT1eLYdE3wkw==\n-----END PRIVATE KEY-----\n",
  "client_email": "dialogflow-hxrrrd@lms-twufqc.iam.gserviceaccount.com",
  "client_id": "115476910895614276906",
  "auth_uri": "https://accounts.google.com/o/oauth2/auth",
  "token_uri": "https://oauth2.googleapis.com/token",
  "auth_provider_x509_cert_url": "https://www.googleapis.com/oauth2/v1/certs",
  "client_x509_cert_url": "https://www.googleapis.com/robot/v1/metadata/x509/dialogflow-hxrrrd%40lms-twufqc.iam.gserviceaccount.com"
}
