{
  "driver": "postgres",
  "connection": "postgres://livspace:livspaceadmin@postgress.ciq7fhve3lvr.ap-southeast-1.rds.amazonaws.com/casbin-alpha?sslmode=disable&",
  "enforcer": "examples/rbac_model.conf"
}

