{
  "port": 3000,
  "maintenance": false,
  "services": {
    "this": {
      "host": "ops.alpha2.livspace.com",
      "port": 80
    },
    "bouncer": {
      "host": "bouncer.alpha2.livspace.com",
      "port": 80,
      "client_id": "OMS",
      "client_secret": "f4b708cb-f5f3-4960-8043-70d2f0ae528f"
    },
    "axle": {
      "host": "axle",
      "port": 80,
      "client_id": "StarMSFe-G4DsKI",
      "client_secret": "2SXhLxG7prabkWl2rHQptbpIyt8XH9yg"
    }
  },
  "bouncer": {
    "host": "bouncer.alpha2.livspace.com",
    "port": 80,
    "client_id": "OMS",
    "client_secret": "f4b708cb-f5f3-4960-8043-70d2f0ae528f"
  },
  "axle": {
    "host": "axle",
    "port": 80,
    "client_id": "StarMSFe-G4DsKI",
    "client_secret": "2SXhLxG7prabkWl2rHQptbpIyt8XH9yg"
  },
  "wkhtmltopdf": {
    "zoom": 4.5,
    "dpi": 300,
    "footerCenter": "[page]/[topage]"
  },
  "constants": {
    "SOURCING_MODEL_FEATURE_ID": 13,
    "WH_QC_FEATURE_ID": 173,
    "PACKAGE_FEATURE_ID": 252,
    "SPILATTABLE_FEATURE_ID": 278,
    "ALLOCATABLE_SIZE_FEATURE_ID": 292,
    "PROCUREMENT_FEATURE_ID": 289,
    "PROCUREMENT_CARCASS_ID_VALUE": 17376,
    "PROCUREMENT_SHUTTER_ID_VALUE": 17375,
    "PROCUREMENT_PANEL_ID_VALUE": 16492,
    "INVENTORY_TYPE_FEATURE_ID": 285,
    "IH_TYPE_ID_VALUE": 17365,
    "MH_TYPE_ID_VALUE": 17366,
    "PACKAGING_CONFIGURATION_FEATURE_ID": 287,
    "INTERNAL_ADDON_ID_VALUE": 17370,
    "EXTERNAL_ADDON_ID_VALUE": 17371,
    "CARCASS_ID_VALUE": 17369,
    "WEIGHT_BASED_SHUTTER_ID_VALUE": 17372,
    "NON_WEIGHT_BASED_SHUTTER_ID_VALUE": 17373,
    "PACKAGE_TYPE_FEATURE_ID": 286,
    "NORMAL_PACKING_ID_VALUE": 17367,
    "CRATE_PACKING_ID_VALUE": 17368,
    "VENDOR_CAPACITY_REDUCTION_FEATURE_ID": 291,
    "VENDOR_CAPACITY_REDUCTION_ID_VALUE": 17379,
    "VENDOR_CAPACITY_NON_REDUCTION_ID_VALUE": 17386,
    "ENABLE_FDI": true
  }
}
